{
  "_meta": {
    "sources": [
      {
        "json": "BCC",
        "abbreviation": "BCC",
        "full": "badgr's Custom Campaign",
        "authors": [
          "Dale \"badgr_\" Emasiri"
        ],
        "convertedBy": "badgr_",
        "url": "https://badgr.co",
        "version": "1.0",
        "targetSchema": "1.0.0"
      }
    ]
  },
  "item": [
    {
      "name": "Fate's Circlet",
      "wondrous": true,
      "tier": "Major",
      "rarity": "Uncommon",
      "source": "BCC",
      "reqAttune": true,
      "entries": [
        "While wearing this circlet, you look human. No horns or tail, less red in your skin colour, and your eyes are hazel. The spell ends if the circlet is removed."
      ]
    },
    {
      "name": "Cloak of the Panther",
      "wondrous": true,
      "tier": "Major",
      "rarity": "Very Rare",
      "source": "BCC",
      "reqAttune": true,
      "entries": [
	"While wearing this cloak, you can pull its hood over your head to transform yourself into the form of a panther. While you are in panther form, you are considered under the same effects as a Druid's Wild Shape. Your stats are that of the panther (CR 1/4) and when your HP is reduced to 0, you revert back to your original form.",
	"Pulling the hood up or or dispelling the magic requires 1 Action.",
	"The cloak contains 2 Charges that recharges with each new dawn."
      ]
    }
  ]
}